<svg width="205" height="46" viewBox="0 0 205 46" fill="none" xmlns="http://www.w3.org/2000/svg">
<path d="M0 36.8983C0 29.4097 6.07072 23.339 13.5593 23.339H19.661V29.4407C19.661 36.9293 13.5903 43 6.1017 43H0V36.8983Z" fill="url(#paint0_linear_6_14)"/>
<path d="M26.4407 23.339C33.9293 23.339 40 29.4097 40 36.8983V43H34.5763C27.0877 43 21.017 36.9293 21.017 29.4407V23.339L26.4407 23.339Z" fill="url(#paint1_linear_6_14)"/>
<path d="M0 9.1017C0 16.5903 6.07072 22.661 13.5593 22.661H19.661V16.5593C19.661 9.07072 13.5903 3 6.1017 3H0V9.1017Z" fill="url(#paint2_linear_6_14)"/>
<path d="M26.4407 22.661C33.9293 22.661 40 16.5903 40 9.1017V3L34.5763 3C27.0877 3 21.017 9.07072 21.017 16.5593V22.661L26.4407 22.661Z" fill="url(#paint3_linear_6_14)"/>
<path d="M49.3 11.6H49.93C50.1833 11.6 50.3933 11.5667 50.56 11.5C50.7267 11.4267 50.87 11.3133 50.99 11.16L54.98 6.11C55.1467 5.89667 55.32 5.75 55.5 5.67C55.6867 5.58333 55.92 5.54 56.2 5.54H58.52L53.65 11.55C53.3633 11.9167 53.0667 12.1767 52.76 12.33C52.98 12.41 53.1767 12.5233 53.35 12.67C53.53 12.81 53.7 12.9967 53.86 13.23L58.88 20H56.51C56.19 20 55.95 19.9567 55.79 19.87C55.6367 19.7767 55.5067 19.6433 55.4 19.47L51.31 14.13C51.1833 13.95 51.0367 13.8233 50.87 13.75C50.7033 13.6767 50.4633 13.64 50.15 13.64H49.3V20H46.61V5.54H49.3V11.6ZM73.3688 12.77C73.3688 13.83 73.1921 14.8133 72.8388 15.72C72.4921 16.62 71.9988 17.4 71.3588 18.06C70.7188 18.72 69.9488 19.2367 69.0488 19.61C68.1488 19.9767 67.1488 20.16 66.0488 20.16C64.9554 20.16 63.9588 19.9767 63.0588 19.61C62.1588 19.2367 61.3854 18.72 60.7388 18.06C60.0988 17.4 59.6021 16.62 59.2488 15.72C58.8954 14.8133 58.7188 13.83 58.7188 12.77C58.7188 11.71 58.8954 10.73 59.2488 9.83C59.6021 8.92333 60.0988 8.14 60.7388 7.48C61.3854 6.82 62.1588 6.30667 63.0588 5.94C63.9588 5.56667 64.9554 5.38 66.0488 5.38C66.7821 5.38 67.4721 5.46667 68.1188 5.64C68.7654 5.80667 69.3588 6.04667 69.8988 6.36C70.4388 6.66667 70.9221 7.04333 71.3488 7.49C71.7821 7.93 72.1488 8.42333 72.4488 8.97C72.7488 9.51667 72.9754 10.11 73.1288 10.75C73.2888 11.39 73.3688 12.0633 73.3688 12.77ZM70.6188 12.77C70.6188 11.9767 70.5121 11.2667 70.2988 10.64C70.0854 10.0067 69.7821 9.47 69.3888 9.03C68.9954 8.59 68.5154 8.25333 67.9488 8.02C67.3888 7.78667 66.7554 7.67 66.0488 7.67C65.3421 7.67 64.7054 7.78667 64.1388 8.02C63.5788 8.25333 63.0988 8.59 62.6988 9.03C62.3054 9.47 62.0021 10.0067 61.7888 10.64C61.5754 11.2667 61.4688 11.9767 61.4688 12.77C61.4688 13.5633 61.5754 14.2767 61.7888 14.91C62.0021 15.5367 62.3054 16.07 62.6988 16.51C63.0988 16.9433 63.5788 17.2767 64.1388 17.51C64.7054 17.7433 65.3421 17.86 66.0488 17.86C66.7554 17.86 67.3888 17.7433 67.9488 17.51C68.5154 17.2767 68.9954 16.9433 69.3888 16.51C69.7821 16.07 70.0854 15.5367 70.2988 14.91C70.5121 14.2767 70.6188 13.5633 70.6188 12.77ZM91.4111 5.54V20H89.0411V10.66C89.0411 10.2867 89.0611 9.88333 89.1011 9.45L84.7311 17.66C84.5244 18.0533 84.2078 18.25 83.7811 18.25H83.4011C82.9744 18.25 82.6578 18.0533 82.4511 17.66L78.0311 9.42C78.0511 9.64 78.0678 9.85667 78.0811 10.07C78.0944 10.2833 78.1011 10.48 78.1011 10.66V20H75.7311V5.54H77.7611C77.8811 5.54 77.9844 5.54333 78.0711 5.55C78.1578 5.55667 78.2344 5.57333 78.3011 5.6C78.3744 5.62667 78.4378 5.67 78.4911 5.73C78.5511 5.79 78.6078 5.87 78.6611 5.97L82.9911 14C83.1044 14.2133 83.2078 14.4333 83.3011 14.66C83.4011 14.8867 83.4978 15.12 83.5911 15.36C83.6844 15.1133 83.7811 14.8767 83.8811 14.65C83.9811 14.4167 84.0878 14.1933 84.2011 13.98L88.4711 5.97C88.5244 5.87 88.5811 5.79 88.6411 5.73C88.7011 5.67 88.7644 5.62667 88.8311 5.6C88.9044 5.57333 88.9844 5.55667 89.0711 5.55C89.1578 5.54333 89.2611 5.54 89.3811 5.54H91.4111ZM100.457 17.83C100.977 17.83 101.441 17.7433 101.847 17.57C102.261 17.3967 102.607 17.1533 102.887 16.84C103.167 16.5267 103.381 16.1467 103.527 15.7C103.681 15.2533 103.757 14.7533 103.757 14.2V5.54H106.447V14.2C106.447 15.06 106.307 15.8567 106.027 16.59C105.754 17.3167 105.357 17.9467 104.837 18.48C104.324 19.0067 103.697 19.42 102.957 19.72C102.217 20.0133 101.384 20.16 100.457 20.16C99.524 20.16 98.6873 20.0133 97.9473 19.72C97.2073 19.42 96.5773 19.0067 96.0573 18.48C95.544 17.9467 95.1473 17.3167 94.8673 16.59C94.594 15.8567 94.4573 15.06 94.4573 14.2V5.54H97.1473V14.19C97.1473 14.7433 97.2207 15.2433 97.3673 15.69C97.5207 16.1367 97.7373 16.52 98.0173 16.84C98.304 17.1533 98.6507 17.3967 99.0573 17.57C99.4707 17.7433 99.9373 17.83 100.457 17.83ZM121.671 5.54V20H120.291C120.078 20 119.898 19.9667 119.751 19.9C119.611 19.8267 119.474 19.7067 119.341 19.54L111.791 9.9C111.831 10.34 111.851 10.7467 111.851 11.12V20H109.481V5.54H110.891C111.004 5.54 111.101 5.54667 111.181 5.56C111.268 5.56667 111.341 5.58667 111.401 5.62C111.468 5.64667 111.531 5.69 111.591 5.75C111.651 5.80333 111.718 5.87667 111.791 5.97L119.371 15.65C119.351 15.4167 119.334 15.1867 119.321 14.96C119.308 14.7333 119.301 14.5233 119.301 14.33V5.54H121.671ZM127.591 20H124.891V5.54H127.591V20ZM133.519 11.6H134.149C134.402 11.6 134.612 11.5667 134.779 11.5C134.945 11.4267 135.089 11.3133 135.209 11.16L139.199 6.11C139.365 5.89667 139.539 5.75 139.719 5.67C139.905 5.58333 140.139 5.54 140.419 5.54H142.739L137.869 11.55C137.582 11.9167 137.285 12.1767 136.979 12.33C137.199 12.41 137.395 12.5233 137.569 12.67C137.749 12.81 137.919 12.9967 138.079 13.23L143.099 20H140.729C140.409 20 140.169 19.9567 140.009 19.87C139.855 19.7767 139.725 19.6433 139.619 19.47L135.529 14.13C135.402 13.95 135.255 13.8233 135.089 13.75C134.922 13.6767 134.682 13.64 134.369 13.64H133.519V20H130.829V5.54H133.519V11.6ZM157.588 12.77C157.588 13.83 157.411 14.8133 157.058 15.72C156.711 16.62 156.218 17.4 155.578 18.06C154.938 18.72 154.168 19.2367 153.268 19.61C152.368 19.9767 151.368 20.16 150.268 20.16C149.174 20.16 148.178 19.9767 147.278 19.61C146.378 19.2367 145.604 18.72 144.958 18.06C144.318 17.4 143.821 16.62 143.468 15.72C143.114 14.8133 142.938 13.83 142.938 12.77C142.938 11.71 143.114 10.73 143.468 9.83C143.821 8.92333 144.318 8.14 144.958 7.48C145.604 6.82 146.378 6.30667 147.278 5.94C148.178 5.56667 149.174 5.38 150.268 5.38C151.001 5.38 151.691 5.46667 152.338 5.64C152.984 5.80667 153.578 6.04667 154.118 6.36C154.658 6.66667 155.141 7.04333 155.568 7.49C156.001 7.93 156.368 8.42333 156.668 8.97C156.968 9.51667 157.194 10.11 157.348 10.75C157.508 11.39 157.588 12.0633 157.588 12.77ZM154.838 12.77C154.838 11.9767 154.731 11.2667 154.518 10.64C154.304 10.0067 154.001 9.47 153.608 9.03C153.214 8.59 152.734 8.25333 152.168 8.02C151.608 7.78667 150.974 7.67 150.268 7.67C149.561 7.67 148.924 7.78667 148.358 8.02C147.798 8.25333 147.318 8.59 146.918 9.03C146.524 9.47 146.221 10.0067 146.008 10.64C145.794 11.2667 145.688 11.9767 145.688 12.77C145.688 13.5633 145.794 14.2767 146.008 14.91C146.221 15.5367 146.524 16.07 146.918 16.51C147.318 16.9433 147.798 17.2767 148.358 17.51C148.924 17.7433 149.561 17.86 150.268 17.86C150.974 17.86 151.608 17.7433 152.168 17.51C152.734 17.2767 153.214 16.9433 153.608 16.51C154.001 16.07 154.304 15.5367 154.518 14.91C154.731 14.2767 154.838 13.5633 154.838 12.77ZM168.42 17.78V20H159.95V5.54H162.64V17.78H168.42ZM183.623 12.77C183.623 13.83 183.446 14.8133 183.093 15.72C182.746 16.62 182.253 17.4 181.613 18.06C180.973 18.72 180.203 19.2367 179.303 19.61C178.403 19.9767 177.403 20.16 176.303 20.16C175.209 20.16 174.213 19.9767 173.313 19.61C172.413 19.2367 171.639 18.72 170.993 18.06C170.353 17.4 169.856 16.62 169.503 15.72C169.149 14.8133 168.973 13.83 168.973 12.77C168.973 11.71 169.149 10.73 169.503 9.83C169.856 8.92333 170.353 8.14 170.993 7.48C171.639 6.82 172.413 6.30667 173.313 5.94C174.213 5.56667 175.209 5.38 176.303 5.38C177.036 5.38 177.726 5.46667 178.373 5.64C179.019 5.80667 179.613 6.04667 180.153 6.36C180.693 6.66667 181.176 7.04333 181.603 7.49C182.036 7.93 182.403 8.42333 182.703 8.97C183.003 9.51667 183.229 10.11 183.383 10.75C183.543 11.39 183.623 12.0633 183.623 12.77ZM180.873 12.77C180.873 11.9767 180.766 11.2667 180.553 10.64C180.339 10.0067 180.036 9.47 179.643 9.03C179.249 8.59 178.769 8.25333 178.203 8.02C177.643 7.78667 177.009 7.67 176.303 7.67C175.596 7.67 174.959 7.78667 174.393 8.02C173.833 8.25333 173.353 8.59 172.953 9.03C172.559 9.47 172.256 10.0067 172.043 10.64C171.829 11.2667 171.723 11.9767 171.723 12.77C171.723 13.5633 171.829 14.2767 172.043 14.91C172.256 15.5367 172.559 16.07 172.953 16.51C173.353 16.9433 173.833 17.2767 174.393 17.51C174.959 17.7433 175.596 17.86 176.303 17.86C177.009 17.86 177.643 17.7433 178.203 17.51C178.769 17.2767 179.249 16.9433 179.643 16.51C180.036 16.07 180.339 15.5367 180.553 14.91C180.766 14.2767 180.873 13.5633 180.873 12.77ZM197.905 12.75V18.6C197.172 19.14 196.388 19.5367 195.555 19.79C194.728 20.0367 193.842 20.16 192.895 20.16C191.715 20.16 190.645 19.9767 189.685 19.61C188.732 19.2433 187.915 18.7333 187.235 18.08C186.562 17.4267 186.042 16.6467 185.675 15.74C185.308 14.8333 185.125 13.8433 185.125 12.77C185.125 11.6833 185.302 10.6867 185.655 9.78C186.008 8.87333 186.508 8.09333 187.155 7.44C187.808 6.78667 188.598 6.28 189.525 5.92C190.452 5.56 191.492 5.38 192.645 5.38C193.232 5.38 193.778 5.42667 194.285 5.52C194.798 5.61333 195.272 5.74333 195.705 5.91C196.145 6.07 196.545 6.26667 196.905 6.5C197.265 6.73333 197.595 6.99 197.895 7.27L197.125 8.49C197.005 8.68333 196.848 8.80333 196.655 8.85C196.462 8.89 196.252 8.84 196.025 8.7C195.805 8.57333 195.585 8.44667 195.365 8.32C195.145 8.19333 194.898 8.08333 194.625 7.99C194.358 7.89667 194.055 7.82 193.715 7.76C193.382 7.7 192.995 7.67 192.555 7.67C191.842 7.67 191.195 7.79 190.615 8.03C190.042 8.27 189.552 8.61333 189.145 9.06C188.738 9.50667 188.425 10.0433 188.205 10.67C187.985 11.2967 187.875 11.9967 187.875 12.77C187.875 13.5967 187.992 14.3367 188.225 14.99C188.465 15.6367 188.798 16.1867 189.225 16.64C189.658 17.0867 190.178 17.43 190.785 17.67C191.392 17.9033 192.068 18.02 192.815 18.02C193.348 18.02 193.825 17.9633 194.245 17.85C194.665 17.7367 195.075 17.5833 195.475 17.39V14.77H193.655C193.482 14.77 193.345 14.7233 193.245 14.63C193.152 14.53 193.105 14.41 193.105 14.27V12.75H197.905ZM203.197 20H200.497V5.54H203.197V20Z" fill="#000428"/>
<path d="M47.048 40.112C46.8347 40.112 46.6693 40.0533 46.552 39.936C46.4453 39.808 46.392 39.6373 46.392 39.424V29.296C46.392 29.072 46.4453 28.9013 46.552 28.784C46.6693 28.6667 46.8347 28.608 47.048 28.608C47.2613 28.608 47.4213 28.6667 47.528 28.784C47.6453 28.9013 47.704 29.072 47.704 29.296V39.424C47.704 39.6373 47.6507 39.808 47.544 39.936C47.4373 40.0533 47.272 40.112 47.048 40.112ZM50.9654 40.112C50.752 40.112 50.592 40.0533 50.4854 39.936C50.3787 39.8187 50.3254 39.6533 50.3254 39.44V32.768C50.3254 32.5547 50.3787 32.3947 50.4854 32.288C50.592 32.1707 50.7467 32.112 50.9494 32.112C51.152 32.112 51.3067 32.1707 51.4134 32.288C51.5307 32.3947 51.5894 32.5547 51.5894 32.768V34.144L51.4134 33.952C51.6374 33.3333 52 32.8693 52.5014 32.56C53.0134 32.24 53.6 32.08 54.2614 32.08C54.88 32.08 55.392 32.192 55.7974 32.416C56.2134 32.64 56.5227 32.9813 56.7254 33.44C56.928 33.888 57.0294 34.4587 57.0294 35.152V39.44C57.0294 39.6533 56.9707 39.8187 56.8534 39.936C56.7467 40.0533 56.592 40.112 56.3894 40.112C56.176 40.112 56.0107 40.0533 55.8934 39.936C55.7867 39.8187 55.7334 39.6533 55.7334 39.44V35.232C55.7334 34.5067 55.5894 33.9787 55.3014 33.648C55.024 33.3067 54.576 33.136 53.9574 33.136C53.2427 33.136 52.672 33.36 52.2454 33.808C51.8294 34.2453 51.6214 34.832 51.6214 35.568V39.44C51.6214 39.888 51.4027 40.112 50.9654 40.112ZM62.3791 40.144C61.6858 40.144 61.0778 39.9787 60.5551 39.648C60.0431 39.3173 59.6431 38.8533 59.3551 38.256C59.0778 37.648 58.9391 36.9333 58.9391 36.112C58.9391 35.28 59.0778 34.5653 59.3551 33.968C59.6431 33.36 60.0431 32.896 60.5551 32.576C61.0778 32.2453 61.6858 32.08 62.3791 32.08C63.0831 32.08 63.6858 32.256 64.1871 32.608C64.6885 32.96 65.0245 33.4347 65.1951 34.032H65.0191V29.264C65.0191 29.0507 65.0725 28.8907 65.1791 28.784C65.2965 28.6667 65.4618 28.608 65.6751 28.608C65.8778 28.608 66.0325 28.6667 66.1391 28.784C66.2565 28.8907 66.3151 29.0507 66.3151 29.264V39.44C66.3151 39.6533 66.2618 39.8187 66.1551 39.936C66.0485 40.0533 65.8885 40.112 65.6751 40.112C65.4725 40.112 65.3125 40.0533 65.1951 39.936C65.0885 39.8187 65.0351 39.6533 65.0351 39.44V37.92L65.2111 38.144C65.0405 38.752 64.6991 39.2373 64.1871 39.6C63.6858 39.9627 63.0831 40.144 62.3791 40.144ZM62.6511 39.104C63.1311 39.104 63.5525 38.9867 63.9151 38.752C64.2778 38.5173 64.5551 38.176 64.7471 37.728C64.9498 37.28 65.0511 36.7413 65.0511 36.112C65.0511 35.1413 64.8325 34.4 64.3951 33.888C63.9685 33.376 63.3871 33.12 62.6511 33.12C62.1605 33.12 61.7338 33.2373 61.3711 33.472C61.0191 33.696 60.7418 34.032 60.5391 34.48C60.3471 34.9173 60.2511 35.4613 60.2511 36.112C60.2511 37.072 60.4698 37.8133 60.9071 38.336C61.3445 38.848 61.9258 39.104 62.6511 39.104ZM71.9793 40.144C71.2219 40.144 70.5659 39.9787 70.0113 39.648C69.4566 39.3173 69.0246 38.8533 68.7153 38.256C68.4166 37.648 68.2673 36.9333 68.2673 36.112C68.2673 35.4933 68.3526 34.9387 68.5233 34.448C68.6939 33.9467 68.9446 33.52 69.2753 33.168C69.6059 32.816 69.9953 32.5493 70.4433 32.368C70.9019 32.176 71.4139 32.08 71.9793 32.08C72.7366 32.08 73.3926 32.2453 73.9473 32.576C74.5019 32.9067 74.9286 33.376 75.2273 33.984C75.5366 34.5813 75.6913 35.2907 75.6913 36.112C75.6913 36.7307 75.6059 37.2853 75.4353 37.776C75.2646 38.2667 75.0139 38.6933 74.6833 39.056C74.3526 39.408 73.9579 39.68 73.4993 39.872C73.0513 40.0533 72.5446 40.144 71.9793 40.144ZM71.9793 39.104C72.4593 39.104 72.8806 38.9867 73.2433 38.752C73.6059 38.5173 73.8833 38.176 74.0753 37.728C74.2779 37.28 74.3793 36.7413 74.3793 36.112C74.3793 35.1413 74.1606 34.4 73.7233 33.888C73.2966 33.376 72.7153 33.12 71.9793 33.12C71.4886 33.12 71.0619 33.2373 70.6993 33.472C70.3473 33.696 70.0699 34.032 69.8673 34.48C69.6753 34.9173 69.5793 35.4613 69.5793 36.112C69.5793 37.072 69.7979 37.8133 70.2353 38.336C70.6726 38.848 71.2539 39.104 71.9793 39.104ZM78.2779 40.112C78.0645 40.112 77.9045 40.0533 77.7979 39.936C77.6912 39.8187 77.6379 39.6533 77.6379 39.44V32.768C77.6379 32.5547 77.6912 32.3947 77.7979 32.288C77.9045 32.1707 78.0592 32.112 78.2619 32.112C78.4645 32.112 78.6192 32.1707 78.7259 32.288C78.8432 32.3947 78.9019 32.5547 78.9019 32.768V34.144L78.7259 33.952C78.9499 33.3333 79.3125 32.8693 79.8139 32.56C80.3259 32.24 80.9125 32.08 81.5739 32.08C82.1925 32.08 82.7045 32.192 83.1099 32.416C83.5259 32.64 83.8352 32.9813 84.0379 33.44C84.2405 33.888 84.3419 34.4587 84.3419 35.152V39.44C84.3419 39.6533 84.2832 39.8187 84.1659 39.936C84.0592 40.0533 83.9045 40.112 83.7019 40.112C83.4885 40.112 83.3232 40.0533 83.2059 39.936C83.0992 39.8187 83.0459 39.6533 83.0459 39.44V35.232C83.0459 34.5067 82.9019 33.9787 82.6139 33.648C82.3365 33.3067 81.8885 33.136 81.2699 33.136C80.5552 33.136 79.9845 33.36 79.5579 33.808C79.1419 34.2453 78.9339 34.832 78.9339 35.568V39.44C78.9339 39.888 78.7152 40.112 78.2779 40.112ZM90.2356 40.144C89.4143 40.144 88.705 39.984 88.1076 39.664C87.521 39.3333 87.0623 38.8693 86.7316 38.272C86.4116 37.6747 86.2516 36.96 86.2516 36.128C86.2516 35.3173 86.4116 34.6133 86.7316 34.016C87.0516 33.408 87.489 32.9333 88.0436 32.592C88.609 32.2507 89.2596 32.08 89.9956 32.08C90.5183 32.08 90.9876 32.1707 91.4036 32.352C91.8196 32.5227 92.1716 32.7733 92.4596 33.104C92.7583 33.4347 92.9823 33.8347 93.1316 34.304C93.2916 34.7733 93.3716 35.3013 93.3716 35.888C93.3716 36.0587 93.3236 36.1867 93.2276 36.272C93.1316 36.3467 92.993 36.384 92.8116 36.384H87.2436V35.536H92.5076L92.2516 35.744C92.2516 35.168 92.1663 34.6827 91.9956 34.288C91.825 33.8827 91.5743 33.5733 91.2436 33.36C90.9236 33.1467 90.5183 33.04 90.0276 33.04C89.4836 33.04 89.0196 33.168 88.6356 33.424C88.2623 33.6693 87.9796 34.016 87.7876 34.464C87.5956 34.9013 87.4996 35.4133 87.4996 36V36.096C87.4996 37.0773 87.7343 37.824 88.2036 38.336C88.6836 38.848 89.361 39.104 90.2356 39.104C90.5983 39.104 90.9556 39.056 91.3076 38.96C91.6703 38.864 92.0223 38.704 92.3636 38.48C92.513 38.384 92.6463 38.3413 92.7636 38.352C92.8916 38.352 92.993 38.3893 93.0676 38.464C93.1423 38.528 93.1903 38.6133 93.2116 38.72C93.2436 38.816 93.233 38.9227 93.1796 39.04C93.137 39.1573 93.0463 39.2587 92.9076 39.344C92.5556 39.6 92.1396 39.7973 91.6596 39.936C91.1796 40.0747 90.705 40.144 90.2356 40.144ZM97.8713 40.144C97.3913 40.144 96.9059 40.0853 96.4153 39.968C95.9353 39.8507 95.4873 39.648 95.0713 39.36C94.9646 39.2853 94.8899 39.2 94.8473 39.104C94.8046 38.9973 94.7886 38.896 94.7993 38.8C94.8206 38.6933 94.8633 38.6027 94.9273 38.528C95.0019 38.4533 95.0873 38.4107 95.1833 38.4C95.2899 38.3787 95.4073 38.4 95.5353 38.464C95.9513 38.72 96.3513 38.9013 96.7353 39.008C97.1299 39.104 97.5193 39.152 97.9033 39.152C98.5113 39.152 98.9699 39.04 99.2793 38.816C99.5886 38.592 99.7433 38.288 99.7433 37.904C99.7433 37.6053 99.6419 37.3707 99.4393 37.2C99.2366 37.0187 98.9166 36.88 98.4793 36.784L97.0233 36.464C96.3513 36.3253 95.8499 36.0853 95.5193 35.744C95.1993 35.4027 95.0393 34.96 95.0393 34.416C95.0393 33.936 95.1619 33.5253 95.4073 33.184C95.6633 32.832 96.0206 32.56 96.4793 32.368C96.9379 32.176 97.4713 32.08 98.0793 32.08C98.5486 32.08 98.9913 32.144 99.4073 32.272C99.8339 32.3893 100.218 32.5813 100.559 32.848C100.666 32.9227 100.735 33.0133 100.767 33.12C100.81 33.216 100.815 33.3173 100.783 33.424C100.762 33.52 100.714 33.6053 100.639 33.68C100.565 33.744 100.474 33.7813 100.367 33.792C100.261 33.8027 100.149 33.7707 100.031 33.696C99.7113 33.4827 99.3859 33.328 99.0553 33.232C98.7246 33.1253 98.3993 33.072 98.0793 33.072C97.4819 33.072 97.0286 33.1893 96.7193 33.424C96.4099 33.6587 96.2553 33.968 96.2553 34.352C96.2553 34.6507 96.3513 34.896 96.5433 35.088C96.7353 35.28 97.0339 35.4187 97.4393 35.504L98.8953 35.808C99.5886 35.9573 100.106 36.1973 100.447 36.528C100.799 36.848 100.975 37.2853 100.975 37.84C100.975 38.544 100.693 39.104 100.127 39.52C99.5619 39.936 98.8099 40.144 97.8713 40.144ZM103.59 40.08C103.377 40.08 103.217 40.0213 103.11 39.904C103.004 39.776 102.95 39.6 102.95 39.376V32.832C102.95 32.608 103.004 32.4373 103.11 32.32C103.217 32.2027 103.377 32.144 103.59 32.144C103.793 32.144 103.953 32.2027 104.07 32.32C104.188 32.4373 104.246 32.608 104.246 32.832V39.376C104.246 39.6 104.188 39.776 104.07 39.904C103.964 40.0213 103.804 40.08 103.59 40.08ZM103.59 30.352C103.324 30.352 103.116 30.2827 102.966 30.144C102.817 29.9947 102.742 29.7973 102.742 29.552C102.742 29.296 102.817 29.104 102.966 28.976C103.116 28.8373 103.324 28.768 103.59 28.768C103.868 28.768 104.076 28.8373 104.214 28.976C104.364 29.104 104.438 29.296 104.438 29.552C104.438 29.7973 104.364 29.9947 104.214 30.144C104.076 30.2827 103.868 30.352 103.59 30.352ZM109.117 40.144C108.584 40.144 108.104 40.0427 107.677 39.84C107.261 39.6267 106.93 39.3387 106.685 38.976C106.44 38.6133 106.317 38.208 106.317 37.76C106.317 37.184 106.461 36.7307 106.749 36.4C107.048 36.0693 107.533 35.8347 108.205 35.696C108.888 35.5573 109.816 35.488 110.989 35.488H111.709V36.336H111.005C110.141 36.336 109.458 36.3787 108.957 36.464C108.466 36.5387 108.12 36.672 107.917 36.864C107.725 37.056 107.629 37.328 107.629 37.68C107.629 38.1173 107.778 38.4747 108.077 38.752C108.386 39.0293 108.802 39.168 109.325 39.168C109.752 39.168 110.125 39.0667 110.445 38.864C110.776 38.6613 111.032 38.384 111.213 38.032C111.405 37.68 111.501 37.2747 111.501 36.816V34.992C111.501 34.3307 111.368 33.856 111.101 33.568C110.834 33.2693 110.397 33.12 109.789 33.12C109.416 33.12 109.042 33.168 108.669 33.264C108.296 33.36 107.901 33.5147 107.485 33.728C107.336 33.8027 107.208 33.8293 107.101 33.808C106.994 33.776 106.909 33.7173 106.845 33.632C106.781 33.5467 106.744 33.4507 106.733 33.344C106.722 33.2267 106.744 33.1147 106.797 33.008C106.861 32.9013 106.957 32.816 107.085 32.752C107.554 32.5173 108.018 32.3467 108.477 32.24C108.936 32.1333 109.373 32.08 109.789 32.08C110.461 32.08 111.016 32.192 111.453 32.416C111.89 32.6293 112.216 32.96 112.429 33.408C112.642 33.8453 112.749 34.4107 112.749 35.104V39.44C112.749 39.6533 112.696 39.8187 112.589 39.936C112.493 40.0533 112.349 40.112 112.157 40.112C111.954 40.112 111.8 40.0533 111.693 39.936C111.586 39.8187 111.533 39.6533 111.533 39.44V38.192H111.677C111.592 38.5973 111.426 38.944 111.181 39.232C110.946 39.52 110.653 39.744 110.301 39.904C109.949 40.064 109.554 40.144 109.117 40.144Z" fill="#000428"/>
<defs>
<linearGradient id="paint0_linear_6_14" x1="40" y1="13.1476" x2="22.9089" y2="18.2" gradientUnits="userSpaceOnUse">
<stop stop-color="#004E92"/>
<stop offset="1" stop-color="#000428"/>
</linearGradient>
<linearGradient id="paint1_linear_6_14" x1="40" y1="13.1476" x2="22.9089" y2="18.2" gradientUnits="userSpaceOnUse">
<stop stop-color="#004E92"/>
<stop offset="1" stop-color="#000428"/>
</linearGradient>
<linearGradient id="paint2_linear_6_14" x1="40" y1="13.1476" x2="22.9089" y2="18.2" gradientUnits="userSpaceOnUse">
<stop stop-color="#004E92"/>
<stop offset="1" stop-color="#000428"/>
</linearGradient>
<linearGradient id="paint3_linear_6_14" x1="40" y1="13.1476" x2="22.9089" y2="18.2" gradientUnits="userSpaceOnUse">
<stop stop-color="#004E92"/>
<stop offset="1" stop-color="#000428"/>
</linearGradient>
</defs>
</svg>
